{
    "applications": {
        "Lub": {
            "applicationId": "qdqTq8zSoEPASkfogqkDIfodCpHPznGfZjhGj1QF", 
            "masterKey": "YniWYj3F4MyqOwE3mmo4dyXm8a3EmiqGJf0aVsEi"
        }, 
        "_default": {
            "link": "Lub"
        }
    }, 
    "global": {
        "parseVersion": "1.2.12"
    }
}